0 0.7373417721518987 0.5492957746478874 0.2763713080168776 0.4563380281690141
0 0.20147679324894513 0.5338028169014085 0.3649789029535865 0.5211267605633804
0 0.4177215189873417 0.49295774647887325 0.21940928270042193 0.5633802816901409
0 0.8343881856540084 0.33661971830985915 0.3143459915611814 0.48169014084507045
0 0.5664556962025316 0.38028169014084506 0.2510548523206751 0.5971830985915493
