0 0.22784810126582278 0.2775800711743772 0.2151898734177215 0.5053380782918149
0 0.38080168776371304 0.36298932384341637 0.13291139240506328 0.4128113879003559
0 0.5358649789029536 0.30071174377224197 0.19831223628691982 0.5302491103202847
0 0.8059071729957805 0.30249110320284694 0.18143459915611812 0.5124555160142349
0 0.6656118143459915 0.3113879003558719 0.1751054852320675 0.494661921708185
