0 0.2341772151898734 0.6412429378531074 0.16877637130801687 0.2655367231638418
0 0.5622362869198312 0.480225988700565 0.1582278481012658 0.12994350282485875
0 0.8343881856540084 0.8361581920903954 0.12447257383966244 0.1807909604519774
0 0.7795358649789029 0.5 0.1793248945147679 0.1638418079096045
0 0.36075949367088606 0.3629943502824859 0.16455696202531644 0.1497175141242938
0 0.2521097046413502 0.2824858757062147 0.12447257383966244 0.20903954802259886
0 0.23945147679324894 0.1694915254237288 0.06962025316455696 0.06779661016949153
