0 0.16455696202531644 0.7974683544303797 0.20253164556962022 0.3881856540084388
0 0.35970464135021096 0.7046413502109704 0.18354430379746833 0.4599156118143459
0 0.5453586497890295 0.7183544303797468 0.18354430379746833 0.4240506329113924
0 0.30168776371308015 0.4662447257383966 0.1181434599156118 0.270042194092827
0 0.41666666666666663 0.4071729957805907 0.15400843881856538 0.19831223628691982
0 0.370253164556962 0.2510548523206751 0.11181434599156118 0.19831223628691982
0 0.49789029535864976 0.2552742616033755 0.14345991561181434 0.3713080168776371
0 0.6118143459915611 0.270042194092827 0.10548523206751054 0.26160337552742613
0 0.6497890295358649 0.44092827004219404 0.16455696202531644 0.3586497890295358
0 0.8080168776371307 0.41666666666666663 0.16877637130801687 0.3945147679324894
