0 0.7447257383966244 0.7083333333333334 0.5063291139240506 0.5791666666666666
0 0.28902953586497887 0.503125 0.5443037974683543 0.9895833333333334
0 0.7784810126582278 0.2760416666666667 0.430379746835443 0.44375
