0 0.15400843881856538 0.5432330827067668 0.1940928270042194 0.7706766917293233
0 0.3227848101265823 0.5263157894736842 0.16455696202531644 0.7744360902255638
0 0.5021097046413502 0.5413533834586466 0.22784810126582278 0.7819548872180451
0 0.6729957805907173 0.4906015037593985 0.18565400843881855 0.8458646616541353
0 0.8217299578059071 0.5319548872180451 0.1793248945147679 0.7706766917293233
