0 0.30379746835443033 0.4625954198473282 0.6075949367088607 0.6473282442748092
0 0.7162447257383966 0.6564885496183206 0.32700421940928265 0.3694656488549618
0 0.510548523206751 0.5229007633587787 0.6118143459915611 0.5969465648854961
