0 0.24999999999999997 0.5093023255813953 0.3059071729957806 0.4697674418604651
0 0.2753164556962025 0.2534883720930233 0.14978902953586495 0.27906976744186046
0 0.49367088607594933 0.6174418604651163 0.3164556962025316 0.44883720930232557
0 0.6930379746835442 0.2872093023255814 0.22995780590717296 0.3325581395348837
0 0.7932489451476793 0.5534883720930233 0.2362869198312236 0.4697674418604651
