0 0.28481012658227844 0.5904761904761905 0.270042194092827 0.692063492063492
0 0.5664556962025316 0.626984126984127 0.38185654008438813 0.5047619047619047
0 0.7373417721518987 0.5047619047619047 0.2974683544303797 0.8317460317460318
