0 0.1181434599156118 0.7294303797468354 0.2362869198312236 0.3322784810126582
0 0.6445147679324894 0.8481012658227848 0.20886075949367086 0.2974683544303797
0 0.18776371308016876 0.5268987341772152 0.3755274261603375 0.18670886075949367
0 0.6582278481012658 0.5933544303797468 0.42194092827004215 0.22468354430379747
0 0.1371308016877637 0.21360759493670886 0.2742616033755274 0.3449367088607595
0 0.3227848101265823 0.1930379746835443 0.20253164556962022 0.3860759493670886
0 0.38607594936708856 0.04113924050632911 0.08438818565400844 0.08227848101265822
0 0.4841772151898734 0.10759493670886076 0.18354430379746833 0.21518987341772153
0 0.540084388185654 0.1962025316455696 0.14345991561181434 0.3924050632911392
0 0.6371308016877637 0.16139240506329114 0.10548523206751054 0.3227848101265823
0 0.7521097046413502 0.20569620253164556 0.310126582278481 0.4113924050632911
0 0.7563291139240506 0.15664556962025317 0.20042194092827004 0.23734177215189872
0 0.9251054852320675 0.24841772151898733 0.14556962025316456 0.2563291139240506
0 0.9177215189873417 0.5237341772151899 0.16033755274261602 0.3259493670886076
