0 0.2985232067510548 0.6300675675675677 0.3227848101265823 0.7331081081081081
0 0.5801687763713079 0.6368243243243243 0.24472573839662445 0.625
0 0.49999999999999994 0.25 0.21940928270042193 0.3445945945945946
0 0.6445147679324894 0.15033783783783786 0.20464135021097044 0.3006756756756757
0 0.7552742616033755 0.5472972972972974 0.27848101265822783 0.6486486486486487
