1 0.18881856540084388 0.5504731861198738 0.37763713080168776 0.8927444794952681
1 0.7816455696202531 0.5425867507886435 0.4324894514767932 0.8706624605678234
1 0.44092827004219404 0.5599369085173501 0.13924050632911392 0.7728706624605678
1 0.5253164556962024 0.5268138801261829 0.10548523206751054 0.807570977917981
