1 0.2362869198312236 0.5519125683060109 0.15189873417721517 0.3551912568306011
1 0.40400843881856535 0.48633879781420764 0.2172995780590717 0.5355191256830601
1 0.5411392405063291 0.5 0.1582278481012658 0.453551912568306
1 0.6919831223628692 0.5273224043715847 0.1772151898734177 0.39344262295081966
