1 0.12869198312236285 0.4424778761061947 0.2362869198312236 0.5722713864306784
1 0.2331223628691983 0.7286135693215339 0.25949367088607594 0.5073746312684366
1 0.35654008438818563 0.3938053097345133 0.22362869198312235 0.504424778761062
1 0.47468354430379744 0.7094395280235988 0.14767932489451477 0.36283185840707965
1 0.5147679324894514 0.28466076696165193 0.13080168776371306 0.49262536873156343
1 0.6571729957805906 0.33185840707964603 0.1582278481012658 0.5575221238938053
1 0.8491561181434598 0.44837758112094395 0.23839662447257381 0.56047197640118
1 0.760548523206751 0.7109144542772862 0.1793248945147679 0.5073746312684366
