1 0.23839662447257381 0.6142857142857143 0.47679324894514763 0.765079365079365
1 0.1940928270042194 0.38412698412698415 0.14767932489451477 0.4
1 0.2943037974683544 0.22063492063492063 0.09071729957805906 0.12380952380952381
1 0.3691983122362869 0.18888888888888888 0.09282700421940927 0.12380952380952381
1 0.38185654008438813 0.06190476190476191 0.04641350210970464 0.12380952380952381
1 0.45886075949367083 0.1365079365079365 0.08649789029535865 0.13968253968253969
1 0.47573839662447254 0.32063492063492066 0.14135021097046413 0.24761904761904763
1 0.5696202531645569 0.24285714285714285 0.15189873417721517 0.44126984126984126
1 0.5812236286919831 0.5698412698412698 0.18354430379746833 0.326984126984127
1 0.5654008438818565 0.7111111111111111 0.14767932489451477 0.26031746031746034
1 0.490506329113924 0.7301587301587301 0.14135021097046413 0.3238095238095238
1 0.680379746835443 0.2984126984126984 0.11603375527426159 0.2920634920634921
1 0.7700421940928269 0.3238095238095238 0.13080168776371306 0.35555555555555557
1 0.7130801687763713 0.6555555555555556 0.13924050632911392 0.326984126984127
1 0.870253164556962 0.6841269841269841 0.22151898734177214 0.4222222222222222
