1 0.1729957805907173 0.6629392971246006 0.2869198312236287 0.5079872204472843
1 0.430379746835443 0.6373801916932907 0.26160337552742613 0.47603833865814693
1 0.680379746835443 0.5958466453674122 0.2510548523206751 0.4696485623003195
1 0.8776371308016877 0.5431309904153354 0.24050632911392403 0.4728434504792332
