0 0.355405 0.379880 0.096396 0.083283
0 0.735586 0.483183 0.094595 0.238639
0 0.773874 0.182082 0.068468 0.091291
0 0.858559 0.067568 0.055856 0.080080
0 0.636937 0.246947 0.032432 0.070470
0 0.589189 0.363864 0.075676 0.092893
0 0.905405 0.487187 0.018018 0.054454