0 0.861712 0.069970 0.089189 0.084885
0 0.913514 0.525626 0.066667 0.153754
0 0.729279 0.492793 0.083784 0.245045
0 0.769820 0.183684 0.069369 0.094494
0 0.589189 0.363864 0.072072 0.096096
0 0.365315 0.383884 0.121622 0.084885
0 0.638739 0.245345 0.045045 0.073674