0 0.362162 0.382282 0.111712 0.081682
0 0.636486 0.239740 0.029730 0.065666
0 0.773874 0.181281 0.064865 0.089690
0 0.735135 0.484785 0.093694 0.238639
0 0.906306 0.491992 0.025225 0.054454
0 0.589640 0.361461 0.071171 0.091291